intro-r-tidyverse
…
users<-data.frame(word=tolower(tw_df$screenName),lexicon=rep('whatevs',nrow(tw_df)))
#breaks down tweets into words for tidy (word) level analyses
tidy_tw<-tw_df %>% unnest_tokens(word,text)

#removes uninformatives words / ones that oversaturate wordcloud
tw_stop<-data.frame(word=c(confname,tolower(confname),'htt','25','http','amp','gt','t.c','rt','https','t.co','___','1','2','3','4','5','6','7','8','9',"i\'m",'15','30','45','00','10'),lexicon='whatevs')
data("stop_words")
tidy_cloud <- tidy_tw %>%
 anti_join(tw_stop) %>%
  anti_join(stop_words) %>%
  anti_join(users)

print(tidy_cloud %>% count(word, sort = TRUE)) 

## # A tibble: 2,532 x 2
##          word     n
##         <chr> <int>
## 1      python   543
## 2        talk   518
## 3  jupyterlab   292
## 4        tool   220
## 5       scipy   196
## 6     jupyter   180
## 7        data   171
## 8       alpha   168
## 9        blog   167
## 10       post   167
## # ... with 2,522 more rows
…
